micro/cpu.vcd
$date
	Tue Jan 31 23:06:45 2023
$end
$version
	Icarus Verilog
$end
$timescale
	1ns
$end
$scope module test $end
$var reg 1 ! clk $end
$var reg 1 " rst $end
$scope module cpu $end
$var wire 1 ! CLK $end
$var wire 4 # NS [3:0] $end
$var wire 1 " Rst $end
$var wire 1 $ zero $end
$var wire 1 % overflow $end
$var wire 5 & W_Reg [4:0] $end
$var wire 4 ' S [3:0] $end
$var wire 1 ( RegWr $end
$var wire 1 ) RegDst $end
$var wire 32 * R_data2 [31:0] $end
$var wire 32 + R_data1 [31:0] $end
$var wire 32 , R_data [31:0] $end
$var wire 32 - RFW_data [31:0] $end
$var wire 1 . PCWrCond $end
$var wire 1 / PCWr $end
$var wire 1 0 PCW $end
$var wire 2 1 PCSrc [1:0] $end
$var wire 32 2 OutSig [31:0] $end
$var wire 32 3 OutPCSrcSel [31:0] $end
$var wire 1 4 OutAndGate $end
$var wire 32 5 OutALUOut [31:0] $end
$var wire 6 6 Op [5:0] $end
$var wire 32 7 OUTMDR [31:0] $end
$var wire 1 8 MemtoReg $end
$var wire 1 9 MemWr $end
$var wire 1 : MemRd $end
$var wire 1 ; IorD $end
$var wire 26 < Inst [25:0] $end
$var wire 1 = IRWr $end
$var wire 32 > BeqAddr [31:0] $end
$var wire 32 ? AddrOutPC [31:0] $end
$var wire 32 @ Addr [31:0] $end
$var wire 32 A ALUSrcBSel3 [31:0] $end
$var wire 32 B ALUSrcBSel0 [31:0] $end
$var wire 2 C ALUSrcB [1:0] $end
$var wire 32 D ALUSrcASel1 [31:0] $end
$var wire 1 E ALUSrcA $end
$var wire 2 F ALUOp [1:0] $end
$var wire 3 G ALUCtrl [2:0] $end
$var wire 32 H ALUC [31:0] $end
$var wire 32 I ALUB [31:0] $end
$var wire 32 J ALUA [31:0] $end
$scope module ALUOUT $end
$var wire 1 ! CLK $end
$var wire 32 K D [31:0] $end
$var reg 32 L Q [31:0] $end
$upscope $end
$scope module ALUSrcASel $end
$var wire 1 E Select $end
$var wire 32 M S [31:0] $end
$var wire 32 N B [31:0] $end
$var wire 32 O A [31:0] $end
$upscope $end
$scope module ALUSrcBSel $end
$var wire 32 P B [31:0] $end
$var wire 2 Q Select [1:0] $end
$var wire 32 R D [31:0] $end
$var wire 32 S C [31:0] $end
$var wire 32 T A [31:0] $end
$var reg 32 U S [31:0] $end
$upscope $end
$scope module ComRegA $end
$var wire 1 ! CLK $end
$var wire 32 V D [31:0] $end
$var reg 32 W Q [31:0] $end
$upscope $end
$scope module ComRegB $end
$var wire 1 ! CLK $end
$var wire 32 X D [31:0] $end
$var reg 32 Y Q [31:0] $end
$upscope $end
$scope module IDsel $end
$var wire 32 Z B [31:0] $end
$var wire 1 ; Select $end
$var wire 32 [ S [31:0] $end
$var wire 32 \ A [31:0] $end
$upscope $end
$scope module MemtoRegSel $end
$var wire 32 ] A [31:0] $end
$var wire 1 8 Select $end
$var wire 32 ^ S [31:0] $end
$var wire 32 _ B [31:0] $end
$upscope $end
$scope module PCSrcSel $end
$var wire 32 ` B [31:0] $end
$var wire 32 a D [31:0] $end
$var wire 2 b Select [1:0] $end
$var wire 32 c C [31:0] $end
$var wire 32 d A [31:0] $end
$var reg 32 e S [31:0] $end
$upscope $end
$scope module RegDstSel $end
$var wire 5 f A [4:0] $end
$var wire 5 g B [4:0] $end
$var wire 1 ) Select $end
$var wire 5 h S [4:0] $end
$upscope $end
$scope module Sig $end
$var wire 16 i Inst [15:0] $end
$var reg 32 j Addr [31:0] $end
$upscope $end
$scope module alu $end
$var wire 32 k A [31:0] $end
$var wire 32 l B [31:0] $end
$var wire 32 m SA [31:0] $end
$var wire 32 n SB [31:0] $end
$var wire 1 $ Z $end
$var wire 1 % O $end
$var wire 3 o Mod [2:0] $end
$var wire 32 p C [31:0] $end
$var reg 33 q result [32:0] $end
$upscope $end
$scope module alucu $end
$var wire 6 r funct [5:0] $end
$var wire 2 s ALUOp [1:0] $end
$var reg 3 t ALUCtrl [2:0] $end
$upscope $end
$scope module andgate $end
$var wire 1 $ A $end
$var wire 1 4 R $end
$var wire 1 . B $end
$upscope $end
$scope module cu $end
$var wire 1 ! CLK $end
$var wire 6 u Op [5:0] $end
$var wire 1 " Rst $end
$var wire 3 v code [2:0] $end
$var wire 1 ( RegWr $end
$var wire 1 ) RegDst $end
$var wire 1 . PCWrCond $end
$var wire 1 / PCWr $end
$var wire 2 w PCSrc [1:0] $end
$var wire 1 8 MemtoReg $end
$var wire 1 9 MemWr $end
$var wire 1 : MemRd $end
$var wire 4 x MUX2 [3:0] $end
$var wire 4 y MUX1 [3:0] $end
$var wire 1 ; IorD $end
$var wire 1 = IRWr $end
$var wire 2 z Caddr [1:0] $end
$var wire 4 { AddrOutCMAR [3:0] $end
$var wire 4 | AddrOutAdd [3:0] $end
$var wire 4 } AddrInCMAR [3:0] $end
$var wire 2 ~ ALUSrcB [1:0] $end
$var wire 1 E ALUSrcA $end
$var wire 2 !" ALUOp [1:0] $end
$scope module add1 $end
$var wire 4 "" B [3:0] $end
$var wire 4 #" C [3:0] $end
$var wire 4 $" A [3:0] $end
$upscope $end
$scope module cmar $end
$var wire 1 ! CLK $end
$var wire 1 " Rst $end
$var wire 4 %" AddrInCMAR [3:0] $end
$var reg 4 &" AddrOutCMAR [3:0] $end
$upscope $end
$scope module decode $end
$var wire 3 '" code [2:0] $end
$var reg 1 = IRWr $end
$var reg 1 9 MemWr $end
$var reg 1 8 MemtoReg $end
$var reg 2 (" PCSrc [1:0] $end
$var reg 1 ) RegDst $end
$upscope $end
$scope module mux4_4 $end
$var wire 4 )" A [3:0] $end
$var wire 4 *" D [3:0] $end
$var wire 2 +" Select [1:0] $end
$var wire 4 ," C [3:0] $end
$var wire 4 -" B [3:0] $end
$var reg 4 ." S [3:0] $end
$upscope $end
$scope module rom $end
$var wire 4 /" Addr [3:0] $end
$var reg 2 0" ALUOp [1:0] $end
$var reg 1 E ALUSrcA $end
$var reg 2 1" ALUSrcB [1:0] $end
$var reg 2 2" Caddr [1:0] $end
$var reg 1 ; IorD $end
$var reg 1 : MemRd $end
$var reg 1 / PCWr $end
$var reg 1 . PCWrCond $end
$var reg 1 ( RegWr $end
$var reg 3 3" code [2:0] $end
$upscope $end
$scope module rom1 $end
$var wire 6 4" Op [5:0] $end
$var reg 4 5" MUX1 [3:0] $end
$upscope $end
$scope module rom2 $end
$var wire 6 6" Op [5:0] $end
$var reg 4 7" MUX2 [3:0] $end
$upscope $end
$upscope $end
$scope module ir $end
$var wire 1 ! CLK $end
$var wire 1 = IRWr $end
$var wire 32 8" D [31:0] $end
$var reg 32 9" Inst [31:0] $end
$upscope $end
$scope module mdr $end
$var wire 1 ! CLK $end
$var wire 32 :" D [31:0] $end
$var reg 32 ;" Q [31:0] $end
$upscope $end
$scope module orgate $end
$var wire 1 4 A $end
$var wire 1 / B $end
$var wire 1 0 R $end
$upscope $end
$scope module pc $end
$var wire 1 ! CLK $end
$var wire 32 <" D [31:0] $end
$var wire 1 0 PCW $end
$var wire 1 " Rst $end
$var reg 32 =" Q [31:0] $end
$upscope $end
$scope module ram $end
$var wire 32 >" Addr [31:0] $end
$var wire 1 ?" CLK $end
$var wire 1 : R $end
$var wire 1 9 W $end
$var wire 32 @" W_data [31:0] $end
$var wire 32 A" R_data [31:0] $end
$var reg 32 B" data_out [31:0] $end
$var integer 32 C" i [31:0] $end
$scope begin MEM_READ $end
$upscope $end
$scope begin MEM_WRITE $end
$upscope $end
$upscope $end
$scope module rf $end
$var wire 1 ! CLK $end
$var wire 5 D" R_Reg1 [4:0] $end
$var wire 5 E" R_Reg2 [4:0] $end
$var wire 32 F" R_data1 [31:0] $end
$var wire 32 G" R_data2 [31:0] $end
$var wire 1 ( W $end
$var wire 5 H" W_Reg [4:0] $end
$var wire 32 I" W_data [31:0] $end
$var integer 32 J" i [31:0] $end
$scope begin MEM_WRITE $end
$upscope $end
$upscope $end
$scope module shl2_26 $end
$var wire 26 K" data [25:0] $end
$var wire 4 L" data1 [3:0] $end
$var reg 32 M" odata [31:0] $end
$upscope $end
$scope module shl2_32 $end
$var wire 32 N" data [31:0] $end
$var reg 32 O" odata [31:0] $end
$upscope $end
$scope module sr $end
$var wire 1 ! CLK $end
$var wire 4 P" NS [3:0] $end
$var wire 1 " Rst $end
$var reg 4 Q" S [3:0] $end
$upscope $end
$upscope $end
$upscope $end
$enddefinitions $end
#0
$dumpvars
b0 Q"
bz P"
bx O"
bx N"
b0xxxxxxxxxxxxxxxxxxxxxxxxxx00 M"
b0 L"
bx K"
b100000 J"
bx I"
bx H"
bx G"
bx F"
bx E"
bx D"
b100000000 C"
bx B"
bx A"
bx @"
z?"
bx >"
b0 ="
bz <"
bx ;"
bx :"
bx 9"
bx 8"
bx 7"
bx 6"
bx 5"
bx 4"
bx 3"
bx 2"
bx 1"
bx 0"
bx /"
bz ."
bx -"
bx ,"
bx +"
bx *"
b0 )"
bx ("
bx '"
bx &"
bz %"
bx $"
bx #"
b1 ""
bx !"
bx ~
bz }
bx |
bx {
bx z
bx y
bx x
bx w
bx v
bx u
bx t
bx s
bx r
bx q
bx p
bx o
bz n
bx m
bz l
bx k
bx j
bx i
bx h
bx g
bx f
bz e
bx d
b0xxxxxxxxxxxxxxxxxxxxxxxxxx00 c
bx b
bz a
bx `
bx _
bx ^
bx ]
b0 \
bx [
bx Z
bx Y
bx X
bx W
bx V
bz U
bx T
bx S
bx R
bx Q
b100 P
b0 O
bx N
bx M
bx L
bx K
bx J
bz I
bx H
bx G
bx F
xE
bx D
bx C
bx B
bx A
bx @
b0 ?
b0xxxxxxxxxxxxxxxxxxxxxxxxxx00 >
x=
bx <
x;
x:
x9
x8
bx 7
bx 6
bx 5
x4
bz 3
bx 2
bx 1
x0
x/
x.
bx -
bx ,
bx +
bx *
x)
x(
b0 '
bx &
x%
x$
bz #
0"
0!
$end
#10
0$
b100 H
b100 K
b100 d
b100 p
0%
b100 q
b100 3
b100 e
b100 <"
b100 G
b100 o
b100 t
b100 n
b100 I
b100 U
b100 l
b1 }
b1 %"
b1 ."
b10000100001100000100001 ,
b10000100001100000100001 8"
b10000100001100000100001 :"
b10000100001100000100001 A"
b10000100001100000100001 B"
09
1=
08
b0 1
b0 b
b0 w
b0 ("
0)
b0 m
b0 J
b0 M
b0 k
10
04
b0 @
b0 [
b0 >"
b11 z
b11 +"
b11 2"
b110 v
b110 '"
b110 3"
b0 F
b0 s
b0 !"
b0 0"
b1 C
b1 Q
b1 ~
b1 1"
0E
0(
1/
0.
0;
1:
b1 |
b1 #"
b1 *"
b0 {
b0 $"
b0 &"
b0 /"
1"
1!
#20
0"
0!
#30
b110000010001000 3
b110000010001000 e
b110000010001000 <"
b110000010000100 n
b110000010000100 I
b110000010000100 U
b110000010000100 l
b110 }
b110 %"
b110 ."
b110000010001000 H
b110000010001000 K
b110000010001000 d
b110000010001000 p
b11000100001100000100010 B"
b110000010001000 q
0=
00
b0zzzzzzzz ,
b0zzzzzzzz 8"
b0zzzzzzzz :"
b0zzzzzzzz A"
b100 -
b100 ^
b100 I"
b100 @
b100 [
b100 >"
b100 m
b100 J
b100 M
b100 k
b1 z
b1 +"
b1 2"
b0 v
b0 '"
b0 3"
b11 C
b11 Q
b11 ~
b11 1"
0/
0:
b110000010000100 A
b110000010000100 R
b110000010000100 O"
b1000010000110000010000100 >
b1000010000110000010000100 c
b1000010000110000010000100 M"
b100 5
b100 L
b100 Z
b100 ]
b100 `
b10000100001100000100001 7
b10000100001100000100001 _
b10000100001100000100001 ;"
b100 ?
b100 O
b100 \
b100 ="
b10 |
b10 #"
b10 *"
b1 {
b1 $"
b1 &"
b1 /"
b10 &
b10 h
b10 H"
b1100000100001 2
b1100000100001 S
b1100000100001 j
b1100000100001 N"
b10 f
b11 g
b10 +
b10 V
b10 F"
b10 D"
b10 *
b10 X
b10 G"
b10 E"
b1100000100001 i
b100001 r
b110 y
b110 -"
b110 5"
b10000100001100000100001 <
b10000100001100000100001 K"
b0 6
b0 u
b0 4"
b0 6"
b10000100001100000100001 9"
bz '
bz Q"
1!
#40
0!
#50
b100 3
b100 e
b100 <"
b101 G
b101 o
b101 t
b10 n
b10 I
b10 U
b10 l
b111 }
b111 %"
b111 ."
b100 H
b100 K
b100 d
b100 p
b100 q
b10 m
b10 J
b10 M
b10 k
b110000010001000 -
b110000010001000 ^
b110000010001000 I"
b11 z
b11 +"
b11 2"
b10 F
b10 s
b10 !"
b10 0"
b0 C
b0 Q
b0 ~
b0 1"
1E
b0zzzzzzzz 7
b0zzzzzzzz _
b0zzzzzzzz ;"
b10 D
b10 N
b10 W
b10 B
b10 T
b10 Y
b10 @"
b110000010001000 5
b110000010001000 L
b110000010001000 Z
b110000010001000 ]
b110000010001000 `
b111 |
b111 #"
b111 *"
b110 {
b110 $"
b110 &"
b110 /"
1!
#60
0!
#70
b110 3
b110 e
b110 <"
b100 G
b100 o
b100 t
b0 }
b0 %"
b0 ."
b110 H
b110 K
b110 d
b110 p
b11 &
b11 h
b11 H"
b110 q
1)
b100 m
b100 J
b100 M
b100 k
b100 -
b100 ^
b100 I"
b0 z
b0 +"
b0 2"
b1 v
b1 '"
b1 3"
b0 F
b0 s
b0 !"
b0 0"
0E
1(
b100 5
b100 L
b100 Z
b100 ]
b100 `
b1000 |
b1000 #"
b1000 *"
b111 {
b111 $"
b111 &"
b111 /"
1!
#80
0!
#90
b1000 3
b1000 e
b1000 <"
b1000 H
b1000 K
b1000 d
b1000 p
b1000 q
b100 n
b100 I
b100 U
b100 l
b1 }
b1 %"
b1 ."
b10 &
b10 h
b10 H"
1=
0)
10
b11000100001100000100010 ,
b11000100001100000100010 8"
b11000100001100000100010 :"
b11000100001100000100010 A"
b110 -
b110 ^
b110 I"
b11 z
b11 +"
b11 2"
b110 v
b110 '"
b110 3"
b1 C
b1 Q
b1 ~
b1 1"
0(
1/
1:
b110 5
b110 L
b110 Z
b110 ]
b110 `
b1 |
b1 #"
b1 *"
b0 {
b0 $"
b0 &"
b0 /"
1!
#100
0!
#110
b110000010010000 3
b110000010010000 e
b110000010010000 <"
b110000010001000 n
b110000010001000 I
b110000010001000 U
b110000010001000 l
b110 }
b110 %"
b110 ."
b110000010010000 H
b110000010010000 K
b110000010010000 d
b110000010010000 p
b100001010001100000100000 B"
b110000010010000 q
0=
00
b0zzzzzzzz ,
b0zzzzzzzz 8"
b0zzzzzzzz :"
b0zzzzzzzz A"
b1000 -
b1000 ^
b1000 I"
b1000 @
b1000 [
b1000 >"
b1000 m
b1000 J
b1000 M
b1000 k
b1 z
b1 +"
b1 2"
b0 v
b0 '"
b0 3"
b11 C
b11 Q
b11 ~
b11 1"
0/
0:
b110000010001000 A
b110000010001000 R
b110000010001000 O"
b1100010000110000010001000 >
b1100010000110000010001000 c
b1100010000110000010001000 M"
b1000 5
b1000 L
b1000 Z
b1000 ]
b1000 `
b11000100001100000100010 7
b11000100001100000100010 _
b11000100001100000100010 ;"
b1000 ?
b1000 O
b1000 \
b1000 ="
b10 |
b10 #"
b10 *"
b1 {
b1 $"
b1 &"
b1 /"
b1100000100010 2
b1100000100010 S
b1100000100010 j
b1100000100010 N"
b100 +
b100 V
b100 F"
b11 D"
b1100000100010 i
b100010 r
b11000100001100000100010 <
b11000100001100000100010 K"
b11000100001100000100010 9"
1!
#120
0!
#130
b10 3
b10 e
b10 <"
b110 G
b110 o
b110 t
b10 n
b10 I
b10 U
b10 l
b111 }
b111 %"
b111 ."
b10 H
b10 K
b10 d
b10 p
b10 q
b100 m
b100 J
b100 M
b100 k
b110000010010000 -
b110000010010000 ^
b110000010010000 I"
b11 z
b11 +"
b11 2"
b10 F
b10 s
b10 !"
b10 0"
b0 C
b0 Q
b0 ~
b0 1"
1E
b0zzzzzzzz 7
b0zzzzzzzz _
b0zzzzzzzz ;"
b100 D
b100 N
b100 W
b110000010010000 5
b110000010010000 L
b110000010010000 Z
b110000010010000 ]
b110000010010000 `
b111 |
b111 #"
b111 *"
b110 {
b110 $"
b110 &"
b110 /"
1!
#140
0!
#150
b1010 3
b1010 e
b1010 <"
b100 G
b100 o
b100 t
b0 }
b0 %"
b0 ."
b1010 H
b1010 K
b1010 d
b1010 p
b11 &
b11 h
b11 H"
b1010 q
1)
b1000 m
b1000 J
b1000 M
b1000 k
b10 -
b10 ^
b10 I"
b0 z
b0 +"
b0 2"
b1 v
b1 '"
b1 3"
b0 F
b0 s
b0 !"
b0 0"
0E
1(
b10 5
b10 L
b10 Z
b10 ]
b10 `
b1000 |
b1000 #"
b1000 *"
b111 {
b111 $"
b111 &"
b111 /"
1!
#160
0!
#170
b1100 3
b1100 e
b1100 <"
b1100 H
b1100 K
b1100 d
b1100 p
b1100 q
b100 n
b100 I
b100 U
b100 l
b1 }
b1 %"
b1 ."
b10 &
b10 h
b10 H"
1=
0)
10
b100001010001100000100000 ,
b100001010001100000100000 8"
b100001010001100000100000 :"
b100001010001100000100000 A"
b1010 -
b1010 ^
b1010 I"
b11 z
b11 +"
b11 2"
b110 v
b110 '"
b110 3"
b1 C
b1 Q
b1 ~
b1 1"
0(
1/
1:
b1010 5
b1010 L
b1010 Z
b1010 ]
b1010 `
b1 |
b1 #"
b1 *"
b0 {
b0 $"
b0 &"
b0 /"
b10 +
b10 V
b10 F"
1!
#180
0!
#190
b110000010001100 3
b110000010001100 e
b110000010001100 <"
b110000010000000 n
b110000010000000 I
b110000010000000 U
b110000010000000 l
b110 }
b110 %"
b110 ."
b110000010001100 H
b110000010001100 K
b110000010001100 d
b110000010001100 p
b100000110001100000100100 B"
b110000010001100 q
0=
00
b0zzzzzzzz ,
b0zzzzzzzz 8"
b0zzzzzzzz :"
b0zzzzzzzz A"
b1100 -
b1100 ^
b1100 I"
b1100 @
b1100 [
b1100 >"
b1100 m
b1100 J
b1100 M
b1100 k
b1 z
b1 +"
b1 2"
b0 v
b0 '"
b0 3"
b11 C
b11 Q
b11 ~
b11 1"
0/
0:
b110000010000000 A
b110000010000000 R
b110000010000000 O"
b10000101000110000010000000 >
b10000101000110000010000000 c
b10000101000110000010000000 M"
b1100 5
b1100 L
b1100 Z
b1100 ]
b1100 `
b10 D
b10 N
b10 W
b100001010001100000100000 7
b100001010001100000100000 _
b100001010001100000100000 ;"
b1100 ?
b1100 O
b1100 \
b1100 ="
b10 |
b10 #"
b10 *"
b1 {
b1 $"
b1 &"
b1 /"
b101 &
b101 h
b101 H"
b1100000100000 2
b1100000100000 S
b1100000100000 j
b1100000100000 N"
b101 f
b100 +
b100 V
b100 F"
b100 D"
b101 *
b101 X
b101 G"
b101 E"
b1100000100000 i
b100000 r
b100001010001100000100000 <
b100001010001100000100000 K"
b100001010001100000100000 9"
1!
#200
0!
#210
b1001 3
b1001 e
b1001 <"
b101 n
b101 I
b101 U
b101 l
b111 }
b111 %"
b111 ."
b1001 H
b1001 K
b1001 d
b1001 p
b1001 q
b100 m
b100 J
b100 M
b100 k
b110000010001100 -
b110000010001100 ^
b110000010001100 I"
b11 z
b11 +"
b11 2"
b10 F
b10 s
b10 !"
b10 0"
b0 C
b0 Q
b0 ~
b0 1"
1E
b0zzzzzzzz 7
b0zzzzzzzz _
b0zzzzzzzz ;"
b100 D
b100 N
b100 W
b101 B
b101 T
b101 Y
b101 @"
b110000010001100 5
b110000010001100 L
b110000010001100 Z
b110000010001100 ]
b110000010001100 `
b111 |
b111 #"
b111 *"
b110 {
b110 $"
b110 &"
b110 /"
1!
#220
0!
#230
b10001 3
b10001 e
b10001 <"
b0 }
b0 %"
b0 ."
b10001 H
b10001 K
b10001 d
b10001 p
b11 &
b11 h
b11 H"
b10001 q
1)
b1100 m
b1100 J
b1100 M
b1100 k
b1001 -
b1001 ^
b1001 I"
b0 z
b0 +"
b0 2"
b1 v
b1 '"
b1 3"
b0 F
b0 s
b0 !"
b0 0"
0E
1(
b1001 5
b1001 L
b1001 Z
b1001 ]
b1001 `
b1000 |
b1000 #"
b1000 *"
b111 {
b111 $"
b111 &"
b111 /"
1!
#240
0!
#250
b10000 3
b10000 e
b10000 <"
b10000 H
b10000 K
b10000 d
b10000 p
b10000 q
b100 n
b100 I
b100 U
b100 l
b1 }
b1 %"
b1 ."
b101 &
b101 h
b101 H"
1=
0)
10
b100000110001100000100100 ,
b100000110001100000100100 8"
b100000110001100000100100 :"
b100000110001100000100100 A"
b10001 -
b10001 ^
b10001 I"
b11 z
b11 +"
b11 2"
b110 v
b110 '"
b110 3"
b1 C
b1 Q
b1 ~
b1 1"
0(
1/
1:
b10001 5
b10001 L
b10001 Z
b10001 ]
b10001 `
b1 |
b1 #"
b1 *"
b0 {
b0 $"
b0 &"
b0 /"
1!
#260
0!
#270
b110000010100000 3
b110000010100000 e
b110000010100000 <"
b110000010010000 n
b110000010010000 I
b110000010010000 U
b110000010010000 l
b110 }
b110 %"
b110 ."
b110000010100000 H
b110000010100000 K
b110000010100000 d
b110000010100000 p
b11001000001000000100000 B"
b110000010100000 q
0=
00
b0zzzzzzzz ,
b0zzzzzzzz 8"
b0zzzzzzzz :"
b0zzzzzzzz A"
b10000 -
b10000 ^
b10000 I"
b10000 @
b10000 [
b10000 >"
b10000 m
b10000 J
b10000 M
b10000 k
b1 z
b1 +"
b1 2"
b0 v
b0 '"
b0 3"
b11 C
b11 Q
b11 ~
b11 1"
0/
0:
b110000010010000 A
b110000010010000 R
b110000010010000 O"
b10000011000110000010010000 >
b10000011000110000010010000 c
b10000011000110000010010000 M"
b10000 5
b10000 L
b10000 Z
b10000 ]
b10000 `
b100000110001100000100100 7
b100000110001100000100100 _
b100000110001100000100100 ;"
b10000 ?
b10000 O
b10000 \
b10000 ="
b10 |
b10 #"
b10 *"
b1 {
b1 $"
b1 &"
b1 /"
b11 &
b11 h
b11 H"
b1100000100100 2
b1100000100100 S
b1100000100100 j
b1100000100100 N"
b11 f
b1001 *
b1001 X
b1001 G"
b11 E"
b1100000100100 i
b100100 r
b100000110001100000100100 <
b100000110001100000100100 K"
b100000110001100000100100 9"
1!
#280
0!
#290
1$
b0 3
b0 e
b0 <"
b0 G
b0 o
b0 t
b1001 n
b1001 I
b1001 U
b1001 l
b111 }
b111 %"
b111 ."
b0 H
b0 K
b0 d
b0 p
b0 q
b100 m
b100 J
b100 M
b100 k
b110000010100000 -
b110000010100000 ^
b110000010100000 I"
b11 z
b11 +"
b11 2"
b10 F
b10 s
b10 !"
b10 0"
b0 C
b0 Q
b0 ~
b0 1"
1E
b0zzzzzzzz 7
b0zzzzzzzz _
b0zzzzzzzz ;"
b1001 B
b1001 T
b1001 Y
b1001 @"
b110000010100000 5
b110000010100000 L
b110000010100000 Z
b110000010100000 ]
b110000010100000 `
b111 |
b111 #"
b111 *"
b110 {
b110 $"
b110 &"
b110 /"
1!
#300
0!
#310
b11001 3
b11001 e
b11001 <"
0$
b11001 H
b11001 K
b11001 d
b11001 p
b11001 q
b100 G
b100 o
b100 t
b0 }
b0 %"
b0 ."
1)
b10000 m
b10000 J
b10000 M
b10000 k
b0 -
b0 ^
b0 I"
b0 z
b0 +"
b0 2"
b1 v
b1 '"
b1 3"
b0 F
b0 s
b0 !"
b0 0"
0E
1(
b0 5
b0 L
b0 Z
b0 ]
b0 `
b1000 |
b1000 #"
b1000 *"
b111 {
b111 $"
b111 &"
b111 /"
1!
#320
0!
#330
b10100 3
b10100 e
b10100 <"
b10100 H
b10100 K
b10100 d
b10100 p
b10100 q
b100 n
b100 I
b100 U
b100 l
b1 }
b1 %"
b1 ."
1=
0)
10
b11001000001000000100000 ,
b11001000001000000100000 8"
b11001000001000000100000 :"
b11001000001000000100000 A"
b11001 -
b11001 ^
b11001 I"
b11 z
b11 +"
b11 2"
b110 v
b110 '"
b110 3"
b1 C
b1 Q
b1 ~
b1 1"
0(
1/
1:
b11001 5
b11001 L
b11001 Z
b11001 ]
b11001 `
b1 |
b1 #"
b1 *"
b0 {
b0 $"
b0 &"
b0 /"
b0 *
b0 X
b0 G"
1!
#340
0!
#350
b100000010010100 3
b100000010010100 e
b100000010010100 <"
b100000010000000 n
b100000010000000 I
b100000010000000 U
b100000010000000 l
b110 }
b110 %"
b110 ."
b100000010010100 H
b100000010010100 K
b100000010010100 d
b100000010010100 p
b1000000000000000000000000111 B"
b100000010010100 q
0=
00
b0zzzzzzzz ,
b0zzzzzzzz 8"
b0zzzzzzzz :"
b0zzzzzzzz A"
b10100 -
b10100 ^
b10100 I"
b10100 @
b10100 [
b10100 >"
b10100 m
b10100 J
b10100 M
b10100 k
b1 z
b1 +"
b1 2"
b0 v
b0 '"
b0 3"
b11 C
b11 Q
b11 ~
b11 1"
0/
0:
b100000010000000 A
b100000010000000 R
b100000010000000 O"
b1100100000100000010000000 >
b1100100000100000010000000 c
b1100100000100000010000000 M"
b10100 5
b10100 L
b10100 Z
b10100 ]
b10100 `
b0 B
b0 T
b0 Y
b0 @"
b11001000001000000100000 7
b11001000001000000100000 _
b11001000001000000100000 ;"
b10100 ?
b10100 O
b10100 \
b10100 ="
b10 |
b10 #"
b10 *"
b1 {
b1 $"
b1 &"
b1 /"
b100 &
b100 h
b100 H"
b1000000100000 2
b1000000100000 S
b1000000100000 j
b1000000100000 N"
b100 f
b10 g
b0 +
b0 V
b0 F"
b11 D"
b100 *
b100 X
b100 G"
b100 E"
b1000000100000 i
b100000 r
b11001000001000000100000 <
b11001000001000000100000 K"
b11001000001000000100000 9"
1!
#360
0!
#370
b100 3
b100 e
b100 <"
b100 n
b100 I
b100 U
b100 l
b111 }
b111 %"
b111 ."
b100 H
b100 K
b100 d
b100 p
b100 q
b0 m
b0 J
b0 M
b0 k
b100000010010100 -
b100000010010100 ^
b100000010010100 I"
b11 z
b11 +"
b11 2"
b10 F
b10 s
b10 !"
b10 0"
b0 C
b0 Q
b0 ~
b0 1"
1E
b0zzzzzzzz 7
b0zzzzzzzz _
b0zzzzzzzz ;"
b0 D
b0 N
b0 W
b100 B
b100 T
b100 Y
b100 @"
b100000010010100 5
b100000010010100 L
b100000010010100 Z
b100000010010100 ]
b100000010010100 `
b111 |
b111 #"
b111 *"
b110 {
b110 $"
b110 &"
b110 /"
1!
#380
0!
#390
b11000 3
b11000 e
b11000 <"
b0 }
b0 %"
b0 ."
b11000 H
b11000 K
b11000 d
b11000 p
b10 &
b10 h
b10 H"
b11000 q
1)
b10100 m
b10100 J
b10100 M
b10100 k
b100 -
b100 ^
b100 I"
b0 z
b0 +"
b0 2"
b1 v
b1 '"
b1 3"
b0 F
b0 s
b0 !"
b0 0"
0E
1(
b100 5
b100 L
b100 Z
b100 ]
b100 `
b1000 |
b1000 #"
b1000 *"
b111 {
b111 $"
b111 &"
b111 /"
1!
#400
0!
#410
b1 }
b1 %"
b1 ."
b100 &
b100 h
b100 H"
1=
0)
10
b1000000000000000000000000111 ,
b1000000000000000000000000111 8"
b1000000000000000000000000111 :"
b1000000000000000000000000111 A"
b11000 -
b11000 ^
b11000 I"
b11 z
b11 +"
b11 2"
b110 v
b110 '"
b110 3"
b1 C
b1 Q
b1 ~
b1 1"
0(
1/
1:
b11000 5
b11000 L
b11000 Z
b11000 ]
b11000 `
b1 |
b1 #"
b1 *"
b0 {
b0 $"
b0 &"
b0 /"
1!
#420
0!
#430
b110100 3
b110100 e
b110100 <"
b11100 n
b11100 I
b11100 U
b11100 l
b1001 }
b1001 %"
b1001 ."
b110100 H
b110100 K
b110100 d
b110100 p
b100001010001100000100101 B"
b110100 q
0=
00
b0zzzzzzzz ,
b0zzzzzzzz 8"
b0zzzzzzzz :"
b0zzzzzzzz A"
b11000 @
b11000 [
b11000 >"
b11000 m
b11000 J
b11000 M
b11000 k
b1 z
b1 +"
b1 2"
b0 v
b0 '"
b0 3"
b11 C
b11 Q
b11 ~
b11 1"
0/
0:
b11100 A
b11100 R
b11100 O"
b11100 >
b11100 c
b11100 M"
b1000000000000000000000000111 7
b1000000000000000000000000111 _
b1000000000000000000000000111 ;"
b11000 ?
b11000 O
b11000 \
b11000 ="
b10 |
b10 #"
b10 *"
b1 {
b1 $"
b1 &"
b1 /"
b0 &
b0 h
b0 H"
b111 2
b111 S
b111 j
b111 N"
b0 f
b0 g
b0 D"
b0 *
b0 X
b0 G"
b0 E"
b111 i
b111 r
b1001 y
b1001 -"
b1001 5"
b111 <
b111 K"
b10 6
b10 u
b10 4"
b10 6"
b1000000000000000000000000111 9"
1!
#440
0!
#450
b11000 H
b11000 K
b11000 d
b11000 p
b11000 q
b11100 3
b11100 e
b11100 <"
b0 n
b0 I
b0 U
b0 l
b0 }
b0 %"
b0 ."
b10 1
b10 b
b10 w
b10 ("
10
b110100 -
b110100 ^
b110100 I"
b0 z
b0 +"
b0 2"
b11 v
b11 '"
b11 3"
b0 C
b0 Q
b0 ~
b0 1"
1/
b0zzzzzzzz 7
b0zzzzzzzz _
b0zzzzzzzz ;"
b0 B
b0 T
b0 Y
b0 @"
b110100 5
b110100 L
b110100 Z
b110100 ]
b110100 `
b1010 |
b1010 #"
b1010 *"
b1001 {
b1001 $"
b1001 &"
b1001 /"
1!
#460
0!
