mips_10_mc/my/cpu.vcd
$date
	Mon Feb 20 00:08:42 2023
$end
$version
	Icarus Verilog
$end
$timescale
	1ns
$end
$scope module test $end
$var reg 1 ! clk $end
$var reg 1 " rst $end
$scope module cpu $end
$var wire 1 ! CLK $end
$var wire 1 " Rst $end
$var wire 1 # zero $end
$var wire 1 $ overflow $end
$var wire 5 % W_Reg [4:0] $end
$var wire 4 & S [3:0] $end
$var wire 1 ' RegWr $end
$var wire 1 ( RegDst $end
$var wire 32 ) R_data2 [31:0] $end
$var wire 32 * R_data1 [31:0] $end
$var wire 32 + R_data [31:0] $end
$var wire 32 , RFW_data [31:0] $end
$var wire 1 - PCWrCond $end
$var wire 1 . PCWr $end
$var wire 1 / PCW $end
$var wire 2 0 PCSrc [1:0] $end
$var wire 32 1 OutSig [31:0] $end
$var wire 32 2 OutPCSrcSel [31:0] $end
$var wire 1 3 OutAndGate $end
$var wire 32 4 OutALUOut [31:0] $end
$var wire 6 5 Op [5:0] $end
$var wire 32 6 OUTMDR [31:0] $end
$var wire 4 7 NS [3:0] $end
$var wire 1 8 MemtoReg $end
$var wire 1 9 MemWr $end
$var wire 1 : MemRd $end
$var wire 1 ; IorD $end
$var wire 26 < Inst [25:0] $end
$var wire 1 = IRWr $end
$var wire 32 > BeqAddr [31:0] $end
$var wire 32 ? AddrOutPC [31:0] $end
$var wire 32 @ Addr [31:0] $end
$var wire 32 A ALUSrcBSel3 [31:0] $end
$var wire 32 B ALUSrcBSel0 [31:0] $end
$var wire 2 C ALUSrcB [1:0] $end
$var wire 32 D ALUSrcASel1 [31:0] $end
$var wire 1 E ALUSrcA $end
$var wire 2 F ALUOp [1:0] $end
$var wire 3 G ALUCtrl [2:0] $end
$var wire 32 H ALUC [31:0] $end
$var wire 32 I ALUB [31:0] $end
$var wire 32 J ALUA [31:0] $end
$scope module ALUOUT $end
$var wire 1 ! CLK $end
$var wire 32 K D [31:0] $end
$var reg 32 L Q [31:0] $end
$upscope $end
$scope module ALUSrcASel $end
$var wire 1 E Select $end
$var wire 32 M S [31:0] $end
$var wire 32 N B [31:0] $end
$var wire 32 O A [31:0] $end
$upscope $end
$scope module ALUSrcBSel $end
$var wire 32 P B [31:0] $end
$var wire 2 Q Select [1:0] $end
$var wire 32 R D [31:0] $end
$var wire 32 S C [31:0] $end
$var wire 32 T A [31:0] $end
$var reg 32 U S [31:0] $end
$upscope $end
$scope module ComRegA $end
$var wire 1 ! CLK $end
$var wire 32 V D [31:0] $end
$var reg 32 W Q [31:0] $end
$upscope $end
$scope module ComRegB $end
$var wire 1 ! CLK $end
$var wire 32 X D [31:0] $end
$var reg 32 Y Q [31:0] $end
$upscope $end
$scope module IDsel $end
$var wire 32 Z B [31:0] $end
$var wire 1 ; Select $end
$var wire 32 [ S [31:0] $end
$var wire 32 \ A [31:0] $end
$upscope $end
$scope module MemtoRegSel $end
$var wire 32 ] A [31:0] $end
$var wire 1 8 Select $end
$var wire 32 ^ S [31:0] $end
$var wire 32 _ B [31:0] $end
$upscope $end
$scope module PCSrcSel $end
$var wire 32 ` B [31:0] $end
$var wire 32 a D [31:0] $end
$var wire 2 b Select [1:0] $end
$var wire 32 c C [31:0] $end
$var wire 32 d A [31:0] $end
$var reg 32 e S [31:0] $end
$upscope $end
$scope module RegDstSel $end
$var wire 5 f A [4:0] $end
$var wire 5 g B [4:0] $end
$var wire 1 ( Select $end
$var wire 5 h S [4:0] $end
$upscope $end
$scope module Sig $end
$var wire 16 i Inst [15:0] $end
$var reg 32 j Addr [31:0] $end
$upscope $end
$scope module alu $end
$var wire 32 k A [31:0] $end
$var wire 32 l B [31:0] $end
$var wire 32 m SA [31:0] $end
$var wire 32 n SB [31:0] $end
$var wire 1 # Z $end
$var wire 1 $ O $end
$var wire 3 o Mod [2:0] $end
$var wire 32 p C [31:0] $end
$var reg 33 q result [32:0] $end
$upscope $end
$scope module alucu $end
$var wire 6 r funct [5:0] $end
$var wire 2 s ALUOp [1:0] $end
$var reg 3 t ALUCtrl [2:0] $end
$upscope $end
$scope module andgate $end
$var wire 1 # A $end
$var wire 1 3 R $end
$var wire 1 - B $end
$upscope $end
$scope module cu $end
$var wire 6 u Op [5:0] $end
$var wire 4 v S [3:0] $end
$var reg 2 w ALUOp [1:0] $end
$var reg 1 E ALUSrcA $end
$var reg 2 x ALUSrcB [1:0] $end
$var reg 1 = IRWr $end
$var reg 1 ; IorD $end
$var reg 1 : MemRd $end
$var reg 1 9 MemWr $end
$var reg 1 8 MemtoReg $end
$var reg 4 y NS [3:0] $end
$var reg 2 z PCSrc [1:0] $end
$var reg 1 . PCWr $end
$var reg 1 - PCWrCond $end
$var reg 1 ( RegDst $end
$var reg 1 ' RegWr $end
$upscope $end
$scope module ir $end
$var wire 1 ! CLK $end
$var wire 1 = IRWr $end
$var wire 32 { D [31:0] $end
$var reg 32 | Inst [31:0] $end
$upscope $end
$scope module mdr $end
$var wire 1 ! CLK $end
$var wire 32 } D [31:0] $end
$var reg 32 ~ Q [31:0] $end
$upscope $end
$scope module orgate $end
$var wire 1 3 A $end
$var wire 1 . B $end
$var wire 1 / R $end
$upscope $end
$scope module pc $end
$var wire 1 ! CLK $end
$var wire 32 !" D [31:0] $end
$var wire 1 / PCW $end
$var wire 1 " Rst $end
$var reg 32 "" Q [31:0] $end
$upscope $end
$scope module ram $end
$var wire 32 #" Addr [31:0] $end
$var wire 1 $" CLK $end
$var wire 1 : R $end
$var wire 1 9 W $end
$var wire 32 %" W_data [31:0] $end
$var wire 32 &" R_data [31:0] $end
$var reg 32 '" data_out [31:0] $end
$var integer 32 (" i [31:0] $end
$scope begin MEM_READ $end
$upscope $end
$scope begin MEM_WRITE $end
$upscope $end
$upscope $end
$scope module rf $end
$var wire 1 ! CLK $end
$var wire 5 )" R_Reg1 [4:0] $end
$var wire 5 *" R_Reg2 [4:0] $end
$var wire 32 +" R_data1 [31:0] $end
$var wire 32 ," R_data2 [31:0] $end
$var wire 1 ' W $end
$var wire 5 -" W_Reg [4:0] $end
$var wire 32 ." W_data [31:0] $end
$var integer 32 /" i [31:0] $end
$scope begin MEM_WRITE $end
$upscope $end
$upscope $end
$scope module shl2_26 $end
$var wire 26 0" data [25:0] $end
$var wire 4 1" data1 [3:0] $end
$var reg 32 2" odata [31:0] $end
$upscope $end
$scope module shl2_32 $end
$var wire 32 3" data [31:0] $end
$var reg 32 4" odata [31:0] $end
$upscope $end
$scope module sr $end
$var wire 1 ! CLK $end
$var wire 4 5" NS [3:0] $end
$var wire 1 " Rst $end
$var reg 4 6" S [3:0] $end
$upscope $end
$upscope $end
$upscope $end
$enddefinitions $end
#0
$dumpvars
b0 6"
b1 5"
bx 4"
bx 3"
b0xxxxxxxxxxxxxxxxxxxxxxxxxx00 2"
b0 1"
bx 0"
b100000 /"
bx ."
bx -"
bx ,"
bx +"
bx *"
bx )"
b100000000 ("
b10000100001100000100001 '"
b10000100001100000100001 &"
bx %"
z$"
b0 #"
b0 ""
b100 !"
bx ~
b10000100001100000100001 }
bx |
b10000100001100000100001 {
b0 z
b1 y
b1 x
b0 w
b0 v
bx u
b100 t
b0 s
bx r
b100 q
b100 p
b100 o
b100 n
b0 m
b100 l
b0 k
bx j
bx i
bx h
bx g
bx f
b100 e
b100 d
b0xxxxxxxxxxxxxxxxxxxxxxxxxx00 c
b0 b
bz a
bx `
bx _
bx ^
bx ]
b0 \
b0 [
bx Z
bx Y
bx X
bx W
bx V
b100 U
bx T
bx S
bx R
b1 Q
b100 P
b0 O
bx N
b0 M
bx L
b100 K
b0 J
b100 I
b100 H
b100 G
b0 F
0E
bx D
b1 C
bx B
bx A
b0 @
b0 ?
b0xxxxxxxxxxxxxxxxxxxxxxxxxx00 >
1=
bx <
0;
1:
09
08
b1 7
bx 6
bx 5
bx 4
03
b100 2
bx 1
b0 0
1/
1.
0-
bx ,
b10000100001100000100001 +
bx *
bx )
0(
0'
b0 &
bx %
0$
0#
0"
0!
$end
#10
b100 ,
b100 ^
b100 ."
b110000010000100 A
b110000010000100 R
b110000010000100 4"
b1000010000110000010000100 >
b1000010000110000010000100 c
b1000010000110000010000100 2"
b10000100001100000100001 6
b10000100001100000100001 _
b10000100001100000100001 ~
b100 4
b100 L
b100 Z
b100 ]
b100 `
b10 %
b10 h
b10 -"
b1100000100001 1
b1100000100001 S
b1100000100001 j
b1100000100001 3"
b10 f
b11 g
b10 *
b10 V
b10 +"
b10 )"
b10 )
b10 X
b10 ,"
b10 *"
b1100000100001 i
b100001 r
b10000100001100000100001 <
b10000100001100000100001 0"
b0 5
b0 u
b10000100001100000100001 |
1"
1!
#20
0"
0!
#30
b110000010001000 2
b110000010001000 e
b110000010001000 !"
b110000010001000 H
b110000010001000 K
b110000010001000 d
b110000010001000 p
b11000100001100000100010 '"
b110000010001000 q
b100 @
b100 [
b100 #"
b100 m
b100 J
b100 M
b100 k
b110000010000100 n
b110000010000100 I
b110000010000100 U
b110000010000100 l
b10 B
b10 T
b10 Y
b10 %"
b10 D
b10 N
b10 W
b100 ?
b100 O
b100 \
b100 ""
0/
b0zzzzzzzz +
b0zzzzzzzz {
b0zzzzzzzz }
b0zzzzzzzz &"
b110 7
b110 y
b110 5"
0.
0:
0=
b11 C
b11 Q
b11 x
b1 &
b1 v
b1 6"
1!
#40
0!
#50
b110000010001000 ,
b110000010001000 ^
b110000010001000 ."
b100 2
b100 e
b100 !"
b101 G
b101 o
b101 t
b10 n
b10 I
b10 U
b10 l
b0zzzzzzzz 6
b0zzzzzzzz _
b0zzzzzzzz ~
b110000010001000 4
b110000010001000 L
b110000010001000 Z
b110000010001000 ]
b110000010001000 `
b100 H
b100 K
b100 d
b100 p
b100 q
b10 m
b10 J
b10 M
b10 k
b111 7
b111 y
b111 5"
b10 F
b10 s
b10 w
b0 C
b0 Q
b0 x
1E
b110 &
b110 v
b110 6"
1!
#60
0!
#70
b100 ,
b100 ^
b100 ."
b110 2
b110 e
b110 !"
b100 G
b100 o
b100 t
b100 4
b100 L
b100 Z
b100 ]
b100 `
b110 H
b110 K
b110 d
b110 p
b110 q
b100 m
b100 J
b100 M
b100 k
b11 %
b11 h
b11 -"
b0 7
b0 y
b0 5"
b0 F
b0 s
b0 w
0E
1'
1(
b111 &
b111 v
b111 6"
1!
#80
0!
#90
b1000 2
b1000 e
b1000 !"
b1000 H
b1000 K
b1000 d
b1000 p
b1000 q
b110 ,
b110 ^
b110 ."
b100 n
b100 I
b100 U
b100 l
b110 4
b110 L
b110 Z
b110 ]
b110 `
1/
b11000100001100000100010 +
b11000100001100000100010 {
b11000100001100000100010 }
b11000100001100000100010 &"
b10 %
b10 h
b10 -"
b1 7
b1 y
b1 5"
1.
1:
1=
b1 C
b1 Q
b1 x
0'
0(
b0 &
b0 v
b0 6"
1!
#100
0!
#110
b110000010010000 2
b110000010010000 e
b110000010010000 !"
b110000010010000 H
b110000010010000 K
b110000010010000 d
b110000010010000 p
b100001010001100000100000 '"
b110000010010000 q
b1000 ,
b1000 ^
b1000 ."
b1000 @
b1000 [
b1000 #"
b1000 m
b1000 J
b1000 M
b1000 k
b110000010001000 A
b110000010001000 R
b110000010001000 4"
b1100010000110000010001000 >
b1100010000110000010001000 c
b1100010000110000010001000 2"
b110000010001000 n
b110000010001000 I
b110000010001000 U
b110000010001000 l
b1000 4
b1000 L
b1000 Z
b1000 ]
b1000 `
b11000100001100000100010 6
b11000100001100000100010 _
b11000100001100000100010 ~
b1000 ?
b1000 O
b1000 \
b1000 ""
b1100000100010 1
b1100000100010 S
b1100000100010 j
b1100000100010 3"
b100 *
b100 V
b100 +"
b11 )"
b1100000100010 i
b100010 r
0/
b0zzzzzzzz +
b0zzzzzzzz {
b0zzzzzzzz }
b0zzzzzzzz &"
b11000100001100000100010 <
b11000100001100000100010 0"
b110 7
b110 y
b110 5"
0.
0:
0=
b11 C
b11 Q
b11 x
b11000100001100000100010 |
b1 &
b1 v
b1 6"
1!
#120
0!
#130
b110000010010000 ,
b110000010010000 ^
b110000010010000 ."
b10 2
b10 e
b10 !"
b110 G
b110 o
b110 t
b10 n
b10 I
b10 U
b10 l
b0zzzzzzzz 6
b0zzzzzzzz _
b0zzzzzzzz ~
b100 D
b100 N
b100 W
b110000010010000 4
b110000010010000 L
b110000010010000 Z
b110000010010000 ]
b110000010010000 `
b10 H
b10 K
b10 d
b10 p
b10 q
b100 m
b100 J
b100 M
b100 k
b111 7
b111 y
b111 5"
b10 F
b10 s
b10 w
b0 C
b0 Q
b0 x
1E
b110 &
b110 v
b110 6"
1!
#140
0!
#150
b10 ,
b10 ^
b10 ."
b1010 2
b1010 e
b1010 !"
b100 G
b100 o
b100 t
b10 4
b10 L
b10 Z
b10 ]
b10 `
b1010 H
b1010 K
b1010 d
b1010 p
b1010 q
b1000 m
b1000 J
b1000 M
b1000 k
b11 %
b11 h
b11 -"
b0 7
b0 y
b0 5"
b0 F
b0 s
b0 w
0E
1'
1(
b111 &
b111 v
b111 6"
1!
#160
0!
#170
b1100 2
b1100 e
b1100 !"
b1100 H
b1100 K
b1100 d
b1100 p
b1100 q
b1010 ,
b1010 ^
b1010 ."
b100 n
b100 I
b100 U
b100 l
b1010 4
b1010 L
b1010 Z
b1010 ]
b1010 `
1/
b100001010001100000100000 +
b100001010001100000100000 {
b100001010001100000100000 }
b100001010001100000100000 &"
b10 %
b10 h
b10 -"
b1 7
b1 y
b1 5"
1.
1:
1=
b1 C
b1 Q
b1 x
0'
0(
b10 *
b10 V
b10 +"
b0 &
b0 v
b0 6"
1!
#180
0!
#190
b110000010001100 2
b110000010001100 e
b110000010001100 !"
b110000010001100 H
b110000010001100 K
b110000010001100 d
b110000010001100 p
b100000110001100000100100 '"
b110000010001100 q
b1100 ,
b1100 ^
b1100 ."
b1100 @
b1100 [
b1100 #"
b1100 m
b1100 J
b1100 M
b1100 k
b110000010000000 A
b110000010000000 R
b110000010000000 4"
b10000101000110000010000000 >
b10000101000110000010000000 c
b10000101000110000010000000 2"
b110000010000000 n
b110000010000000 I
b110000010000000 U
b110000010000000 l
b1100 4
b1100 L
b1100 Z
b1100 ]
b1100 `
b10 D
b10 N
b10 W
b100001010001100000100000 6
b100001010001100000100000 _
b100001010001100000100000 ~
b1100 ?
b1100 O
b1100 \
b1100 ""
b101 %
b101 h
b101 -"
b1100000100000 1
b1100000100000 S
b1100000100000 j
b1100000100000 3"
b101 f
b100 *
b100 V
b100 +"
b100 )"
b101 )
b101 X
b101 ,"
b101 *"
b1100000100000 i
b100000 r
0/
b0zzzzzzzz +
b0zzzzzzzz {
b0zzzzzzzz }
b0zzzzzzzz &"
b100001010001100000100000 <
b100001010001100000100000 0"
b110 7
b110 y
b110 5"
0.
0:
0=
b11 C
b11 Q
b11 x
b100001010001100000100000 |
b1 &
b1 v
b1 6"
1!
#200
0!
#210
b110000010001100 ,
b110000010001100 ^
b110000010001100 ."
b1001 2
b1001 e
b1001 !"
b101 n
b101 I
b101 U
b101 l
b0zzzzzzzz 6
b0zzzzzzzz _
b0zzzzzzzz ~
b100 D
b100 N
b100 W
b101 B
b101 T
b101 Y
b101 %"
b110000010001100 4
b110000010001100 L
b110000010001100 Z
b110000010001100 ]
b110000010001100 `
b1001 H
b1001 K
b1001 d
b1001 p
b1001 q
b100 m
b100 J
b100 M
b100 k
b111 7
b111 y
b111 5"
b10 F
b10 s
b10 w
b0 C
b0 Q
b0 x
1E
b110 &
b110 v
b110 6"
1!
#220
0!
#230
b1001 ,
b1001 ^
b1001 ."
b10001 2
b10001 e
b10001 !"
b1001 4
b1001 L
b1001 Z
b1001 ]
b1001 `
b10001 H
b10001 K
b10001 d
b10001 p
b10001 q
b1100 m
b1100 J
b1100 M
b1100 k
b11 %
b11 h
b11 -"
b0 7
b0 y
b0 5"
b0 F
b0 s
b0 w
0E
1'
1(
b111 &
b111 v
b111 6"
1!
#240
0!
#250
b10000 2
b10000 e
b10000 !"
b10000 H
b10000 K
b10000 d
b10000 p
b10000 q
b10001 ,
b10001 ^
b10001 ."
b100 n
b100 I
b100 U
b100 l
b10001 4
b10001 L
b10001 Z
b10001 ]
b10001 `
1/
b100000110001100000100100 +
b100000110001100000100100 {
b100000110001100000100100 }
b100000110001100000100100 &"
b101 %
b101 h
b101 -"
b1 7
b1 y
b1 5"
1.
1:
1=
b1 C
b1 Q
b1 x
0'
0(
b0 &
b0 v
b0 6"
1!
#260
0!
#270
b110000010100000 2
b110000010100000 e
b110000010100000 !"
b110000010100000 H
b110000010100000 K
b110000010100000 d
b110000010100000 p
b11001000001000000100000 '"
b110000010100000 q
b10000 ,
b10000 ^
b10000 ."
b10000 @
b10000 [
b10000 #"
b10000 m
b10000 J
b10000 M
b10000 k
b110000010010000 A
b110000010010000 R
b110000010010000 4"
b10000011000110000010010000 >
b10000011000110000010010000 c
b10000011000110000010010000 2"
b110000010010000 n
b110000010010000 I
b110000010010000 U
b110000010010000 l
b10000 4
b10000 L
b10000 Z
b10000 ]
b10000 `
b100000110001100000100100 6
b100000110001100000100100 _
b100000110001100000100100 ~
b10000 ?
b10000 O
b10000 \
b10000 ""
b11 %
b11 h
b11 -"
b1100000100100 1
b1100000100100 S
b1100000100100 j
b1100000100100 3"
b11 f
b1001 )
b1001 X
b1001 ,"
b11 *"
b1100000100100 i
b100100 r
0/
b0zzzzzzzz +
b0zzzzzzzz {
b0zzzzzzzz }
b0zzzzzzzz &"
b100000110001100000100100 <
b100000110001100000100100 0"
b110 7
b110 y
b110 5"
0.
0:
0=
b11 C
b11 Q
b11 x
b100000110001100000100100 |
b1 &
b1 v
b1 6"
1!
#280
0!
#290
1#
b110000010100000 ,
b110000010100000 ^
b110000010100000 ."
b0 2
b0 e
b0 !"
b0 G
b0 o
b0 t
b1001 n
b1001 I
b1001 U
b1001 l
b0zzzzzzzz 6
b0zzzzzzzz _
b0zzzzzzzz ~
b1001 B
b1001 T
b1001 Y
b1001 %"
b110000010100000 4
b110000010100000 L
b110000010100000 Z
b110000010100000 ]
b110000010100000 `
b0 H
b0 K
b0 d
b0 p
b0 q
b100 m
b100 J
b100 M
b100 k
b111 7
b111 y
b111 5"
b10 F
b10 s
b10 w
b0 C
b0 Q
b0 x
1E
b110 &
b110 v
b110 6"
1!
#300
0!
#310
b11001 2
b11001 e
b11001 !"
0#
b11001 H
b11001 K
b11001 d
b11001 p
b11001 q
b0 ,
b0 ^
b0 ."
b100 G
b100 o
b100 t
b0 4
b0 L
b0 Z
b0 ]
b0 `
b10000 m
b10000 J
b10000 M
b10000 k
b0 7
b0 y
b0 5"
b0 F
b0 s
b0 w
0E
1'
1(
b111 &
b111 v
b111 6"
1!
#320
0!
#330
b10100 2
b10100 e
b10100 !"
b10100 H
b10100 K
b10100 d
b10100 p
b10100 q
b11001 ,
b11001 ^
b11001 ."
b100 n
b100 I
b100 U
b100 l
b11001 4
b11001 L
b11001 Z
b11001 ]
b11001 `
1/
b11001000001000000100000 +
b11001000001000000100000 {
b11001000001000000100000 }
b11001000001000000100000 &"
b1 7
b1 y
b1 5"
1.
1:
1=
b1 C
b1 Q
b1 x
0'
0(
b0 )
b0 X
b0 ,"
b0 &
b0 v
b0 6"
1!
#340
0!
#350
b100000010010100 2
b100000010010100 e
b100000010010100 !"
b100000010010100 H
b100000010010100 K
b100000010010100 d
b100000010010100 p
b100001010001100000100101 '"
b100000010010100 q
b10100 ,
b10100 ^
b10100 ."
b10100 @
b10100 [
b10100 #"
b10100 m
b10100 J
b10100 M
b10100 k
b100000010000000 A
b100000010000000 R
b100000010000000 4"
b1100100000100000010000000 >
b1100100000100000010000000 c
b1100100000100000010000000 2"
b100000010000000 n
b100000010000000 I
b100000010000000 U
b100000010000000 l
b10100 4
b10100 L
b10100 Z
b10100 ]
b10100 `
b0 B
b0 T
b0 Y
b0 %"
b11001000001000000100000 6
b11001000001000000100000 _
b11001000001000000100000 ~
b10100 ?
b10100 O
b10100 \
b10100 ""
b100 %
b100 h
b100 -"
b1000000100000 1
b1000000100000 S
b1000000100000 j
b1000000100000 3"
b100 f
b10 g
b0 *
b0 V
b0 +"
b11 )"
b100 )
b100 X
b100 ,"
b100 *"
b1000000100000 i
b100000 r
0/
b0zzzzzzzz +
b0zzzzzzzz {
b0zzzzzzzz }
b0zzzzzzzz &"
b11001000001000000100000 <
b11001000001000000100000 0"
b110 7
b110 y
b110 5"
0.
0:
0=
b11 C
b11 Q
b11 x
b11001000001000000100000 |
b1 &
b1 v
b1 6"
1!
#360
0!
#370
0#
b100000010010100 ,
b100000010010100 ^
b100000010010100 ."
b100 2
b100 e
b100 !"
b100 n
b100 I
b100 U
b100 l
b0zzzzzzzz 6
b0zzzzzzzz _
b0zzzzzzzz ~
b0 D
b0 N
b0 W
b100 B
b100 T
b100 Y
b100 %"
b100000010010100 4
b100000010010100 L
b100000010010100 Z
b100000010010100 ]
b100000010010100 `
b100 H
b100 K
b100 d
b100 p
b100 q
b0 m
b0 J
b0 M
b0 k
b111 7
b111 y
b111 5"
b10 F
b10 s
b10 w
b0 C
b0 Q
b0 x
1E
b110 &
b110 v
b110 6"
1!
#380
0!
#390
b100 ,
b100 ^
b100 ."
b11000 2
b11000 e
b11000 !"
b100 4
b100 L
b100 Z
b100 ]
b100 `
b11000 H
b11000 K
b11000 d
b11000 p
b11000 q
b10100 m
b10100 J
b10100 M
b10100 k
b10 %
b10 h
b10 -"
b0 7
b0 y
b0 5"
b0 F
b0 s
b0 w
0E
1'
1(
b111 &
b111 v
b111 6"
1!
#400
0!
#410
b11000 ,
b11000 ^
b11000 ."
b11000 4
b11000 L
b11000 Z
b11000 ]
b11000 `
1/
b100001010001100000100101 +
b100001010001100000100101 {
b100001010001100000100101 }
b100001010001100000100101 &"
b100 %
b100 h
b100 -"
b1 7
b1 y
b1 5"
1.
1:
1=
b1 C
b1 Q
b1 x
0'
0(
b0 &
b0 v
b0 6"
1!
#420
0!
#430
b110000010101100 2
b110000010101100 e
b110000010101100 !"
b110000010101100 H
b110000010101100 K
b110000010101100 d
b110000010101100 p
b100001010001100000100110 '"
b110000010101100 q
b11000 @
b11000 [
b11000 #"
b11000 m
b11000 J
b11000 M
b11000 k
b110000010010100 A
b110000010010100 R
b110000010010100 4"
b10000101000110000010010100 >
b10000101000110000010010100 c
b10000101000110000010010100 2"
b110000010010100 n
b110000010010100 I
b110000010010100 U
b110000010010100 l
b100001010001100000100101 6
b100001010001100000100101 _
b100001010001100000100101 ~
b11000 ?
b11000 O
b11000 \
b11000 ""
b101 %
b101 h
b101 -"
b1100000100101 1
b1100000100101 S
b1100000100101 j
b1100000100101 3"
b101 f
b11 g
b100 *
b100 V
b100 +"
b100 )"
b101 )
b101 X
b101 ,"
b101 *"
b1100000100101 i
b100101 r
0/
b0zzzzzzzz +
b0zzzzzzzz {
b0zzzzzzzz }
b0zzzzzzzz &"
b100001010001100000100101 <
b100001010001100000100101 0"
b110 7
b110 y
b110 5"
0.
0:
0=
b11 C
b11 Q
b11 x
b100001010001100000100101 |
b1 &
b1 v
b1 6"
1!
#440
0!
#450
b110000010101100 ,
b110000010101100 ^
b110000010101100 ."
b101 2
b101 e
b101 !"
b1 G
b1 o
b1 t
b101 n
b101 I
b101 U
b101 l
b0zzzzzzzz 6
b0zzzzzzzz _
b0zzzzzzzz ~
b100 D
b100 N
b100 W
b101 B
b101 T
b101 Y
b101 %"
b110000010101100 4
b110000010101100 L
b110000010101100 Z
b110000010101100 ]
b110000010101100 `
b101 H
b101 K
b101 d
b101 p
b101 q
b100 m
b100 J
b100 M
b100 k
b111 7
b111 y
b111 5"
b10 F
b10 s
b10 w
b0 C
b0 Q
b0 x
1E
b110 &
b110 v
b110 6"
1!
#460
0!
#470
b101 ,
b101 ^
b101 ."
b11101 2
b11101 e
b11101 !"
b100 G
b100 o
b100 t
b101 4
b101 L
b101 Z
b101 ]
b101 `
b11101 H
b11101 K
b11101 d
b11101 p
b11101 q
b11000 m
b11000 J
b11000 M
b11000 k
b11 %
b11 h
b11 -"
b0 7
b0 y
b0 5"
b0 F
b0 s
b0 w
0E
1'
1(
b111 &
b111 v
b111 6"
1!
#480
0!
#490
b11100 2
b11100 e
b11100 !"
b11100 H
b11100 K
b11100 d
b11100 p
b11100 q
b11101 ,
b11101 ^
b11101 ."
b100 n
b100 I
b100 U
b100 l
b11101 4
b11101 L
b11101 Z
b11101 ]
b11101 `
1/
b100001010001100000100110 +
b100001010001100000100110 {
b100001010001100000100110 }
b100001010001100000100110 &"
b101 %
b101 h
b101 -"
b1 7
b1 y
b1 5"
1.
1:
1=
b1 C
b1 Q
b1 x
0'
0(
b0 &
b0 v
b0 6"
1!
#500
0!
#510
b110000010110100 2
b110000010110100 e
b110000010110100 !"
b110000010110100 H
b110000010110100 K
b110000010110100 d
b110000010110100 p
b100001010001100000100111 '"
b110000010110100 q
b11100 ,
b11100 ^
b11100 ."
b11100 @
b11100 [
b11100 #"
b11100 m
b11100 J
b11100 M
b11100 k
b110000010011000 A
b110000010011000 R
b110000010011000 4"
b10000101000110000010011000 >
b10000101000110000010011000 c
b10000101000110000010011000 2"
b110000010011000 n
b110000010011000 I
b110000010011000 U
b110000010011000 l
b11100 4
b11100 L
b11100 Z
b11100 ]
b11100 `
b100001010001100000100110 6
b100001010001100000100110 _
b100001010001100000100110 ~
b11100 ?
b11100 O
b11100 \
b11100 ""
b1100000100110 1
b1100000100110 S
b1100000100110 j
b1100000100110 3"
b1100000100110 i
b100110 r
0/
b0zzzzzzzz +
b0zzzzzzzz {
b0zzzzzzzz }
b0zzzzzzzz &"
b100001010001100000100110 <
b100001010001100000100110 0"
b110 7
b110 y
b110 5"
0.
0:
0=
b11 C
b11 Q
b11 x
b100001010001100000100110 |
b1 &
b1 v
b1 6"
1!
#520
0!
#530
b110000010110100 ,
b110000010110100 ^
b110000010110100 ."
b1 2
b1 e
b1 !"
b10 G
b10 o
b10 t
b101 n
b101 I
b101 U
b101 l
b0zzzzzzzz 6
b0zzzzzzzz _
b0zzzzzzzz ~
b110000010110100 4
b110000010110100 L
b110000010110100 Z
b110000010110100 ]
b110000010110100 `
b1 H
b1 K
b1 d
b1 p
b1 q
b100 m
b100 J
b100 M
b100 k
b111 7
b111 y
b111 5"
b10 F
b10 s
b10 w
b0 C
b0 Q
b0 x
1E
b110 &
b110 v
b110 6"
1!
#540
0!
#550
b1 ,
b1 ^
b1 ."
b100001 2
b100001 e
b100001 !"
b100 G
b100 o
b100 t
b1 4
b1 L
b1 Z
b1 ]
b1 `
b100001 H
b100001 K
b100001 d
b100001 p
b100001 q
b11100 m
b11100 J
b11100 M
b11100 k
b11 %
b11 h
b11 -"
b0 7
b0 y
b0 5"
b0 F
b0 s
b0 w
0E
1'
1(
b111 &
b111 v
b111 6"
1!
#560
0!
#570
b100000 2
b100000 e
b100000 !"
b100000 H
b100000 K
b100000 d
b100000 p
b100000 q
b100001 ,
b100001 ^
b100001 ."
b100 n
b100 I
b100 U
b100 l
b100001 4
b100001 L
b100001 Z
b100001 ]
b100001 `
1/
b100001010001100000100111 +
b100001010001100000100111 {
b100001010001100000100111 }
b100001010001100000100111 &"
b101 %
b101 h
b101 -"
b1 7
b1 y
b1 5"
1.
1:
1=
b1 C
b1 Q
b1 x
0'
0(
b0 &
b0 v
b0 6"
1!
#580
0!
#590
b110000010111100 2
b110000010111100 e
b110000010111100 !"
b110000010111100 H
b110000010111100 K
b110000010111100 d
b110000010111100 p
b1000000000000000000000001010 '"
b110000010111100 q
b100000 ,
b100000 ^
b100000 ."
b100000 @
b100000 [
b100000 #"
b100000 m
b100000 J
b100000 M
b100000 k
b110000010011100 A
b110000010011100 R
b110000010011100 4"
b10000101000110000010011100 >
b10000101000110000010011100 c
b10000101000110000010011100 2"
b110000010011100 n
b110000010011100 I
b110000010011100 U
b110000010011100 l
b100000 4
b100000 L
b100000 Z
b100000 ]
b100000 `
b100001010001100000100111 6
b100001010001100000100111 _
b100001010001100000100111 ~
b100000 ?
b100000 O
b100000 \
b100000 ""
b1100000100111 1
b1100000100111 S
b1100000100111 j
b1100000100111 3"
b1100000100111 i
b100111 r
0/
b0zzzzzzzz +
b0zzzzzzzz {
b0zzzzzzzz }
b0zzzzzzzz &"
b100001010001100000100111 <
b100001010001100000100111 0"
b110 7
b110 y
b110 5"
0.
0:
0=
b11 C
b11 Q
b11 x
b100001010001100000100111 |
b1 &
b1 v
b1 6"
1!
#600
0!
#610
1$
b110000010111100 ,
b110000010111100 ^
b110000010111100 ."
b11111111111111111111111111111010 2
b11111111111111111111111111111010 e
b11111111111111111111111111111010 !"
b111 G
b111 o
b111 t
b101 n
b101 I
b101 U
b101 l
b0zzzzzzzz 6
b0zzzzzzzz _
b0zzzzzzzz ~
b110000010111100 4
b110000010111100 L
b110000010111100 Z
b110000010111100 ]
b110000010111100 `
b11111111111111111111111111111010 H
b11111111111111111111111111111010 K
b11111111111111111111111111111010 d
b11111111111111111111111111111010 p
b111111111111111111111111111111010 q
b100 m
b100 J
b100 M
b100 k
b111 7
b111 y
b111 5"
b10 F
b10 s
b10 w
b0 C
b0 Q
b0 x
1E
b110 &
b110 v
b110 6"
1!
#620
0!
#630
0$
b11111111111111111111111111111010 ,
b11111111111111111111111111111010 ^
b11111111111111111111111111111010 ."
b100101 2
b100101 e
b100101 !"
b100 G
b100 o
b100 t
b11111111111111111111111111111010 4
b11111111111111111111111111111010 L
b11111111111111111111111111111010 Z
b11111111111111111111111111111010 ]
b11111111111111111111111111111010 `
b100101 H
b100101 K
b100101 d
b100101 p
b100101 q
b100000 m
b100000 J
b100000 M
b100000 k
b11 %
b11 h
b11 -"
b0 7
b0 y
b0 5"
b0 F
b0 s
b0 w
0E
1'
1(
b111 &
b111 v
b111 6"
1!
#640
0!
